<?xml version="1.0" encoding="utf-8"?>
<!DOCTYPE svg PUBLIC "-//W3C//DTD SVG 1.1//EN" "http://www.w3.org/Graphics/SVG/1.1/DTD/svg11.dtd">
<svg version="1.1" id="Layer_1" xmlns="http://www.w3.org/2000/svg" xmlns:xlink="http://www.w3.org/1999/xlink" x="0px" y="0px"
	 width="32px" height="32px" viewBox="0 0 32 32" enable-background="new 0 0 32 32" xml:space="preserve">
<path fill="#515151" d="M15.742,19.966l-4.183-4.184c-0.384-0.383-0.384-1.011,0-1.394l0.349-0.35c0.383-0.383,1.011-0.383,1.394,0
	l3.192,3.192l3.193-3.192c0.383-0.383,1.011-0.383,1.394,0l0.35,0.35c0.383,0.383,0.383,1.01,0,1.394l-4.184,4.184
	c-0.206,0.206-0.482,0.298-0.752,0.282C16.224,20.264,15.949,20.172,15.742,19.966z"/>
</svg>
